통계학
…
# ind_df
```
]

.pull-right[

```r
ind_df
```

```
# A tibble: 28 × 2
   변수1 변수2
   <dbl> <dbl>
 1  0.72  0.82
 2  0.61  0.23
 3  0.35  0.67
 4  0.19  0.42
 5  0.47  0.91
 6  0.99  0.17
 7  0.12  0.56
 8  0.84  0.95
 9  0.65  0.03
10  0.38  0.87
# … with 18 more rows
```
…
```r
library(gt); library(janitor)

handed_data <- tibble(sex = sample(x = c("남자","여자"), size = 100, replace = TRUE),
       handed = sample(x = c("왼손잡이", "오른손잡이"), size = 100, replace = T, prob = c(.3,.7)))

# 표
*handed_data
```
]
 
.panel2-gt_table-auto[

```
# A tibble: 100 × 2
   sex   handed    
   <chr> <chr>     
 1 남자  왼손잡이  
 2 남자  왼손잡이  
 3 여자  오른손잡이
 4 남자  오른손잡이
 5 여자  왼손잡이  
 6 남자  왼손잡이  
 7 남자  왼손잡이  
 8 남자  오른손잡이
 9 남자  오른손잡이
10 남자  오른손잡이
# … with 90 more rows
```
…
