통계학
…
anscombe_tbl
```
]
.pull-right[

```
# A tibble: 88 × 3
   데이터셋     변수     값
   <chr>        <chr> <dbl>
 1 1번 데이터셋 x     10   
 2 2번 데이터셋 x     10   
 3 3번 데이터셋 x     10   
 4 4번 데이터셋 x      8   
 5 1번 데이터셋 y      8.04
 6 2번 데이터셋 y      9.14
 7 3번 데이터셋 y      7.46
 8 4번 데이터셋 y      6.58
 9 1번 데이터셋 x      8   
10 2번 데이터셋 x      8   
# … with 78 more rows
```
…
### 공룡 데이터
.panel1-anscombe-auto[

```r
library(tidyverse)

*anscombe_tbl
```
]
 
.panel2-anscombe-auto[

```
# A tibble: 88 × 3
   데이터셋     변수     값
   <chr>        <chr> <dbl>
 1 1번 데이터셋 x     10   
 2 2번 데이터셋 x     10   
 3 3번 데이터셋 x     10   
 4 4번 데이터셋 x      8   
 5 1번 데이터셋 y      8.04
 6 2번 데이터셋 y      9.14
 7 3번 데이터셋 y      7.46
 8 4번 데이터셋 y      6.58
 9 1번 데이터셋 x      8   
10 2번 데이터셋 x      8   
# … with 78 more rows
```
…
```r
library(tidyverse)

anscombe_tbl %>%
  pivot_wider(names_from=`변수`, values_from = `값`) %>%
* unnest(cols = c(x, y))
```
]
 
.panel2-anscombe-auto[

```
# A tibble: 44 × 3
   데이터셋         x     y
   <chr>        <dbl> <dbl>
 1 1번 데이터셋    10  8.04
 2 1번 데이터셋     8  6.95
 3 1번 데이터셋    13  7.58
 4 1번 데이터셋     9  8.81
 5 1번 데이터셋    11  8.33
 6 1번 데이터셋    14  9.96
 7 1번 데이터셋     6  7.24
 8 1번 데이터셋     4  4.26
 9 1번 데이터셋    12 10.8 
10 1번 데이터셋     7  4.82
# … with 34 more rows
```
…
### 공룡 데이터
.panel1-datasauRus-auto[

```r
library(tidyverse)

*datasauRus::datasaurus_dozen
```
]
 
.panel2-datasauRus-auto[

```
# A tibble: 1,846 × 3
   dataset     x     y
   <chr>   <dbl> <dbl>
 1 dino     55.4  97.2
 2 dino     51.5  96.0
 3 dino     46.2  94.5
 4 dino     42.8  91.4
 5 dino     40.8  88.3
 6 dino     38.7  84.9
 7 dino     35.6  79.9
 8 dino     33.1  77.6
 9 dino     29.0  74.5
10 dino     26.2  71.4
# … with 1,836 more rows
```
…
.panelset[

.panel[.panel-name[데이터셋]

.pull-left[

```r
datasauRus::datasaurus_dozen
```
]
.pull-right[

```
# A tibble: 1,846 × 3
   dataset     x     y
   <chr>   <dbl> <dbl>
 1 dino     55.4  97.2
 2 dino     51.5  96.0
 3 dino     46.2  94.5
 4 dino     42.8  91.4
 5 dino     40.8  88.3
 6 dino     38.7  84.9
 7 dino     35.6  79.9
 8 dino     33.1  77.6
 9 dino     29.0  74.5
10 dino     26.2  71.4
# … with 1,836 more rows
```
…
